module codeberg.org/jcowgar/sqlbench

go 1.19

require (
	github.com/jackc/pgx/v5 v5.0.2
	gopkg.in/yaml.v3 v3.0.1
)

require (
	github.com/jackc/pgpassfile v1.0.0 // indirect
	github.com/jackc/pgservicefile v0.0.0-20200714003250-2b9c44734f2b // indirect
	github.com/kr/text v0.2.0 // indirect
	github.com/rogpeppe/go-internal v1.9.0 // indirect
	golang.org/x/crypto v0.0.0-20220829220503-c86fa9a7ed90 // indirect
	golang.org/x/text v0.3.7 // indirect
)
